{
	"_Global":
	{
		"error":
		{
			"-1":"An error occurred with the function {0} in the database"
		}
	},
	"User.forgotPasswordEmail":
	{
		"error":
		{
			"2":"Email did not pass validation",
			"3":"Failed to send email"
		}
	},
	"App_AddNew":
	{
		"error":
		{
			"-3":"Application named {0} already exists",
			"-2":"Application name cannot be empty"
		}
	},
	"Attr_AddNew":
	{
		"error":
		{
			"-6":"The {0} attribute with the specified name already exists",
			"-5":"The class associated with the attribute does not exist",
			"-4":"File attribute cannot be key",
			"-3":"Array attribute cannot be key",
			"-2":"Required to fill in the name of the attribute"
		}
	},
	"Attr_EditSettings":
	{
		"error":
		{
			"-10": "The attribute cannot be cleared of the Array flag, since there are arrays of attribute values",
			"-9": "The class bound to the attribute does not exist",
			"-8": "The calculation associated with the attribute does not exist",
			"-7": "Attribute name must be filled in",
			"-6": "An attribute {0} with the specified name already exists",
			"-5": "The key attribute must be filled in for all objects",
			"-4": "File attribute cannot be key",
			"-3": "Array attribute cannot be key"
		}
	},
	"Attr_group_AddNew":
	{
		"error":
		{
			"-3": "Group name must be filled in",
			"-2": "Group with {0} name already exists"
		}
	},
	"Attr_group_Rename":
	{
		"error":
		{
			"-3": "Group name must be filled in",
			"-2": "Group with {0} name already exists"
		}
	},
	"Calc_AddNew":
	{
		"error":
		{
			"-6": "You must enter a calculation formula",
			"-5": "The specified class for binding the calculation does not exist",
			"-4": "Calculation with {0} name already exists",
			"-3": "Calculation name must be filled in"			
		}
	},
	"Calc_Edit":
	{
		"error":
		{			
			"-6": "You must enter a calculation formula",
			"-4": "Calculation with {0} name already exists",
			"-3": "Calculation name must be filled in"		
		}
	},
	"Calc_arguments_add":
	{
		"error":
		{
			"-2":"The specified calculation does not exist"			
		}
	},
	"Class_AddNew":
	{
		"error":
		{			
			"-5": "The specified parent class does not exist",
			"-4": "Class with {0} name already exists",
			"-3": "Class name must be filled in"			
		}
	},
	"ClassRename":
	{
		"error":
		{	
			"-4": "Class with {0} name already exists",
			"-3": "Class name must be filled in"			
		}
	},
	"Folder_AddNew":
	{
		"error":
		{	
			"-4": "Folder {0} with the same name already exists",
			"-3": "Folder name must be filled in"			
		}
	},
	"Folder_EditSettings":
	{
		"error":
		{				
			"-2": "The specified directory does not exist"			
		}
	},
	"Folder_Rename":
	{
		"error":
		{	
			"-4": "Folder {0} with the same name already exists",
			"-3": "Folder name must be filled in"			
		}
	},
	"Group_access_Add":
	{
		"error":
		{				
			"-2": "The specified user group does not exist"			
		}
	},
	"Object_AddNewLink":
	{
		"error":
		{				
			"-2": "No relationship between feature classes"		
		}
	},
	"Object_ChangeBaseObj":
	{
		"error":
		{				
			"-2": "No relationship between feature classes"			
		}
	},
	"Object_Delete":
	{
		"error":
		{				
			"-2": "You cannot delete an object that is part of the name of another object"			
		}
	},
	"Object_MultiAddition":
	{
		"error":
		{				
			"-2": "There are errors in the source file"			
		}
	},
	"Objects_Сopy":
	{
		"error":
		{				
			"-2": "Errors occurred while copying"			
		}
	},
	"Pass_Check":
	{
		"error":
		{				
			"-3": "Invalid password",
			"-4": "Invalid login"	
		}
	},
	"View_AddNew":
	{
		"error":
		{				
			"-4": "You must fill in the view name",
			"-3": "View name must be filled in"			
		}
	},
	"View_EditNameSettings":
	{
		"error":
		{				
			"-4": "View {0} already exists",
			"-3": "View name must be filled in"			
		}
	},
	"View_attr_Add":
	{
		"error":
		{				
			"-3": "Class does not exist",
			"-2": "Attribute does not exist"			
		}
	},
	"View_class_Add":
	{
		"error":
		{	
			"-2": "There is no relationship between the classes"			
		}
	},
	"object_AddNew":
	{
		"error":
		{	
			"-4": "The specified class does not exist for the object being created",
			"-3": "The parent object does not exist",
			"-2": "Cannot create class objects without key fields"			
		}
	}
}