{
  "2cba0bab-fa5a-44bd-83d2-9f5d07e757e3": {
    "type": "dateNow",
    "keys": []
  },
  "rootView":{
    "uid":"367c67c4-ba06-412e-a09d-2475f0487bca",
    "attr_sort":"2cba0bab-fa5a-44bd-83d2-9f5d07e757e3",
    "assoc_data":{
      "name":"22945086-5633-4f3a-a7d3-45b930e3f469",
      "date_create":"2cba0bab-fa5a-44bd-83d2-9f5d07e757e3",
      "persone":"65b35d01-48dc-4c3e-aeda-9d7d61ab10cd",
      "status": "",
      "date_signature":"",
      "file":"",
      "signed_file":"",

      "TableAflag": "2ad886ec-e341-40a2-89c2-bfeefad7e632",
      "TableBflag": "dc403732-7cbf-443c-a874-366e1d1f4add"
    }
  },
  "docView":{
    "5a6364ee-e0de-4772-983f-9f992d57a8fb":{
      "assoc_data":{
        "date_create":"25e2e72e-b4b3-451a-a1f1-2dcf8c393e65",
        "status":"79f9bc53-fd85-4fb3-99df-74289eb67441",
        "date_signature":"c1a68663-c677-4f99-9cf8-2dc11b7d5d2a",
        "file":"9065f915-ea0a-47f1-aa41-dc3ddb13f493",
        "signed_file":"9820afbd-b006-476f-9307-7ef0741e5aac",
        "adress_0": "acc27641-5f18-4b52-a128-171cfc2c32ce",
        "adress_1": "ccdf8b63-8d0a-4bae-ac46-e706cceecd63",
        "adress_2": "07803226-fa46-479b-9b8a-b6dcda70cf0b"
      },
      "type":"devis"
    },
    "cc056b7b-b1ba-45b0-a7e3-446bd321abf9":{
      "assoc_data": {
        "date_create": "135c63bd-2a11-41c7-ba8d-0734ee71cadf",
        "status": "",
        "date_signature": "58825d38-319c-4842-ba4d-5af281f1ce4a",
        "file": "ac0f9b55-f91d-45ba-bc16-fc3d0a0fa069",
        "signed_file": "6cf95a8e-8ccb-4f3f-b84b-9e4599dc03e1"
      },
      "type":"facture"
    },
    "0207572e-779a-46eb-953f-90c64f98b697":{
      "assoc_data":{
        "date_create": "aaa5bb5f-c958-4125-8679-9932c56d350e",
        "status": "2707b03f-e58c-4ebe-b849-fad7d5e7b179",
        "date_signature": "4524471e-25ef-419e-bd1d-57e58272e3d4",
        "file": "be249592-c0d8-43ea-b9c6-312e7385983f",
        "signed_file": "8928647e-6525-4056-8701-02f1e6aff920"
      },
      "type": "AH"
    }
  },
  "operView":{
    "assoc_data":{
      "name":"3e35af51-6b93-4d75-9b55-859a2cdd315a",
      "date_create":"",
      "status":"",
      "date_signature":"",
      "file":"",
      "signed_file":""
    }
  }
}