{
  "2cba0bab-fa5a-44bd-83d2-9f5d07e757e3": {
    "type": "dateNow",
    "keys": []
  },
  "22945086-5633-4f3a-a7d3-45b930e3f469": {
    "type": "form",
    "keys": [
      "information_lieu_travaux",
      "nom_travaux"
    ]
  },
  "25e2e72e-b4b3-451a-a1f1-2dcf8c393e65": {
    "type": "dateNow",
    "keys": []
  },
  "c1a68663-c677-4f99-9cf8-2dc11b7d5d2a": {
    "type": "",
	"name":"devis-Date de signature du devis",
    "keys": [
      "date",
      "date_de_signature"
    ]
  },
  "a205f5ac-d703-408d-9d5a-e6ab27009734": {
    "type": "form",
    "name":"devis-Date de signature du devis",
    "keys": [
      "date",
      "date_de_signature_AH"
    ]
  },
  "3e35af51-6b93-4d75-9b55-859a2cdd315a": {
    "type": "form",
    "source": "operation",
    "keys": [
      "operation",
      "uid"
    ],
    "name": "oper-Operation"
  },
  "9821e0dc-550d-40a7-a32e-4f3569ddf76d":{
    "type": "form",
    "source": "operation",
    "keys": [
      "operation",
      "min_price"
    ],
    "name": "oper-min_price"
  },
  "542683d7-e92b-4d24-b160-a648cf70beeb": {
    "type": "form",
    "source": "operation",
    "keys": [
      "operation",
      "oper_options"
    ],
    "name": "oper-Allow operation"
  },
  "4044bf4f-a94b-4045-b495-216c0f02bb58": {
    "type": "form",
    "source": "operation",
    "keys": [
      "value"
    ],
    "name": "oper-Value"
  },
  "f2eabbf9-13f7-4a97-84c5-62fd887a3df0": {
    "type": "form",
    "source": "operation",
    "keys": [
      "surface"
    ],
    "name": "oper-Total surface"
  },
  "dd86e584-a32e-4f28-afd9-c37ff110a63f": {
    "type": "form",
    "source": "isolant",
    "keys": [
      "surface"
    ],
    "name": "isol-surface"
  },
  "993232da-8512-4d68-a540-f635be0be34c": {
    "type": "form",
    "source": "isolant",
    "keys": [
      "value"
    ],
    "name": "isol-isolant"
  },
  "70b76f49-45d7-4312-b43f-40644b101a7d": {
    "type": "form",
	"name":"devis-org",
    "keys": [
      "organization",
      "uid"
    ]
  },
  "1426f9f6-afcd-4804-8eaa-948b45f5c1ff": {
	"name":"numerodeSiren",
    "type": "form",
    "keys": [
		"information_lieu_travaux","siern_travaux"
	]
  },
  "79bd52a1-e491-453b-b210-dc32de59e76d": {
    "type": "form",
	"name":"nomdelacorp",
    "keys": ["information_lieu_travaux","nom_travaux"	]
  },
  "c85b5886-90fb-481c-a367-f8f9f62759b4": {
    "type": "form",
	  "name":"previsite",
    "keys": ["beneficiaire","previsite"	]
  },
  "fea8f11a-8333-4f9e-95ad-404d2f46125e": {
    "type": "form",
	"name":"Type d'operation",
    "keys": ["information_lieu_travaux","operationavec"]
  },
  "1e310c71-2796-4d93-820b-9f6dc64e82b2": {
    "type": "form",
    "keys":  ["information_lieu_travaux","adv_field","code_quartier"]
  },
  "01a324d5-41c1-4fe2-9286-68649edfc79c": {
    "type": "form",
	"name":"nomdesign",
    "keys": ["information_lieu_travaux","adv_field","nom"]
  },
  "a89be429-0a14-411d-b72c-67efd3c5355d": {
    "type": "form",
	"name":"prenomdesign",
    "keys": ["information_lieu_travaux","adv_field","prenom"]
  },
  "29c37e09-bf25-451d-bbbb-8d193b4f41e1": {
    "type": "form",
	"name":"foncsign",
    "keys": ["information_lieu_travaux","adv_field","fonction"]
  },
  "1daff720-ea3c-4f1d-9abd-044028da35c5": {
    "type": "form",
	"name":"telephone",
    "keys": ["information_lieu_travaux","adv_field","phone"]
  },
  "c6fa63c8-65bd-4c74-86e0-4bb55d2171a5": {
    "type": "form",
	"name":"address",
    "keys": ["information_lieu_travaux","adv_field","adresse"]
  },
  "b626f194-9028-4c47-bcd7-13bb3e0a9818": {
    "type": "form",
	"name":"codepostal",
    "keys": ["information_lieu_travaux","adv_field","code_postale"]
  },
  "5d52603e-c6d1-4fe7-8fd3-1631f2b135ad": {
    "type": "form",
	"name":"ville",
    "keys": ["information_lieu_travaux","adv_field","ville"]
  },
  "2c8df32e-20a0-47fa-8521-e809d4812d01": {
    "type": "form",
	"name":"siren",
    "keys": ["information_lieu_travaux","adv_field","siern"]
  },
  "c5445773-2fa8-4343-b824-205c17d9960e": {
    "type": "form",
	"name":"Bailleur Social - Raison",
    "keys": ["information_lieu_travaux","adv_field","raison_sociale"]
  },
  "1f8cd912-a6b0-458e-9c30-5cdc99f1a09d": {
    "type": "form",
	"name":"Bailleur Social - le nombre total de ménages concernés par l'opération",
    "keys": ["information_lieu_travaux","adv_field","nombre_total"]
  },
  "62d2c534-dcf0-4901-9d84-6dcaab4cea7b": {
    "type": "form",
	"name":"Bailleur Social - Nombre total de ménages",
    "keys": ["information_lieu_travaux","adv_field","nombre_total_menages"]
  },
   "acc27641-5f18-4b52-a128-171cfc2c32ce": {
    "type": "form",
	"name":"Bailleur Social - Nombre total de ménages",
    "keys": ["information_lieu_travaux","adresse_travaux"]
  },
   "ccdf8b63-8d0a-4bae-ac46-e706cceecd63": {
    "type": "form",
	"name":"Bailleur Social - Nombre total de ménages",
    "keys": ["information_lieu_travaux","code_postale_travaux"]
  },
  "07803226-fa46-479b-9b8a-b6dcda70cf0b": {
    "type": "form",
	  "name":"Bailleur Social - Nombre total de ménages",
    "keys": ["information_lieu_travaux","ville_travaux"]
  },
  "644c3a94-87c6-4155-893a-20deb123bae7": {
    "type": "form",
	  "name":"Parcelle Cadastrale",
    "keys": ["information_lieu_travaux","parcelle_cadastrale"]
  },
  "d1fcc45b-f66b-428c-b021-e8273d89772b": {
    "type": "form",
	"name":"ben-siret",
    "keys": ["beneficiaire","siern"]
  },
  "bed7646a-b515-4b21-8ba3-4a41ae23d5fc": {
    "type": "form",
	"name":"ben-raisonsociable",
    "keys": ["beneficiaire","raison_sociale"]
  },
   "18860b1a-48fc-40f4-be31-698f8ab54888": {
    "type": "form",
	"name":"ben-nom",
    "keys": ["beneficiaire","nom"]
  },
  "a7a6aad5-513c-43a0-af05-d1e656511c1d": {
    "type": "form",
	"name":"ben-prenom",
    "keys": ["beneficiaire","prenom"]
  },
   "a4265317-d007-4535-af16-9dcf63ad5882": {
    "type": "form",
	"name":"ben-fonction",
    "keys": ["beneficiaire","fonction"]
  },
   "96e55054-432f-4932-b1cb-c473171aaf9a": {
    "type": "form",
	"name":"ben-email",
    "keys": ["beneficiaire","email"]
  },
   "392f7ae0-2519-4e44-a7ed-3fa4acca5ba4": {
    "type": "form",
	"name":"ben-addresse",
    "keys": ["beneficiaire","adresse"]
  },
   "6322e4f7-61cc-4b1a-9ad8-65dae89e527f": {
    "type": "form",
	"name":"ben-numtelp",
    "keys": ["beneficiaire","phone"]
  },
   "f09f41eb-72a7-414e-bd08-5dfbe61dc051": {
    "type": "form",
	"name":"ben-code_postale",
    "keys": ["beneficiaire","code_postale"]
  },
	 "1ea08507-3fb6-4f85-8e16-cd092df6a73a": {
    "type": "form",
	"name":"ben-ville",
    "keys": ["beneficiaire","ville"]
  },
   "614ffccf-80b4-4f18-9dcf-266644382c39": {
    "type": "form",
	"name":"sous-siret",
    "keys": ["sous_traitance","siret"]
  },
   "d9ccff38-09eb-4533-96d9-b103f06c76f3": {
    "type": "form",
	"name":"sous-raisonsociable",
    "keys": ["sous_traitance","raison_sociale"]
  },
   "17af7aa1-fd53-48c3-b650-c95e73c9289f": {
    "type": "form",
	"name":"sous-nom",
    "keys": ["sous_traitance","nom"]
  },
   "84c5e693-184a-475f-8999-8258a81257d7": {
    "type": "form",
	"name":"sous-prenom",
    "keys": ["sous_traitance","prenom"]
  },
   "84c5e693-184a-475f-8999-8258a81257d7": {
    "type": "form",
	"name":"sous-prenom",
    "keys": ["sous_traitance","prenom"]
  },
  "e5caade7-a935-4667-9631-35ff5c782c1c": {
    "type": "form",
    "name": "oper-pre visite",
    "source": "operation",
    "keys": [
      "previsite"
    ]
  },
  "8375a18d-b1c9-4d17-a61a-2d981a6ab230": {
    "type": "form",
    "name": "oper-bure",
    "source": "operation",
    "keys": [
      "bureaudecontrole"
    ]
  },
  "57cc017b-e5ef-42d6-9bed-538a81719336": {
    "type": "form",
    "name": "oper-reffrapport",
    "source": "operation",
    "keys": [
      "referencerapport"
    ]
  },
  "789b7496-8548-4331-a96f-e2845563faf5": {
    "type": "form",
    "name": "oper-zoneClim",
    "source": "operation",
    "keys": []
  },
  "628a8f74-daf1-4303-bbed-75d867a97ed1": {
    "type": "form",
    "name": "oper-logemen",
    "source": "operation",
    "keys": []
  },
  "fe8dcc9c-fb54-4688-8631-9497cf7da051": {
    "type": "form",
    "name": "oper-chauffage",
    "source": "operation",
    "keys": []
  },
  "1ac47e1c-1ef6-4730-bdcc-4a0dc310c6cf": {
    "type": "form",
    "name": "oper-Secteur d’activité",
    "source": "operation",
    "keys": []
  },
  "b63f5935-da0b-4f86-a9b9-77b1104a8cb8": {
    "type": "form",
    "name": "oper-type de pose",
    "source": "operation",
    "keys": []
  },
  "1661342c-af2e-4a52-97cd-626032609f6f": {
    "type": "form",
    "name": "oper-primeclient",
    "source": "operation",
    "keys": [
      "cost_client"
    ]
  },
  "4a09612f-a533-491e-8e47-6bc3a17bce0e": {
    "type": "form",
    "name": "oper-primeclient",
    "source": "operation",
    "keys": [
      "cost_pro"
    ]
  },
  "0a501398-4974-402e-ba1e-ee93f16f36cc": {
    "type": "form",
    "name": "isol-adv_params",
    "source": "isolant",
    "keys": [
      "advParams",
      "Marque",
      "value"
    ]
  },
  "16122ca5-f8cc-4751-91b3-fbf2bb65f111": {
    "type": "form",
    "name": "isol-adv_params",
    "source": "isolant",
    "keys": [
      "advParams",
      "Reference",
      "value"
    ]
  },
  "4d8617f9-b800-443a-86c5-cd14ba37b1b9": {
    "type": "form",
    "name": "isol-adv_params",
    "source": "isolant",
    "keys": [
      "advParams",
      "Attribute 1",
      "value"
    ]
  },
  "c15aabcb-0bb3-4525-98ab-85250e623bd4": {
    "type": "form",
    "name": "isol-adv_params",
    "source": "isolant",
    "keys": [
      "advParams",
      "Attribute 2",
      "value"
    ]
  },
  "135c63bd-2a11-41c7-ba8d-0734ee71cadf": {
    "type": "dateNow",
    "name": "facture-dateNow",
    "keys": []
  },
  "58825d38-319c-4842-ba4d-5af281f1ce4a": {
    "type": "dateNow",
    "name": "facture-dela",
    "keys": []
  },
  "ac559151-66b1-4a20-8a3f-bcd31cf3e3fc":{
    "type": "form",
    "name": "facture-date_de_debut",
    "keys": ["date", "date_de_debut"]
  },
  "aaa5bb5f-c958-4125-8679-9932c56d350e": {
    "type": "dateNow",
    "name": "AH-dateNow",
    "keys": []
  },
  "6bf51662-c812-4bd8-ab4c-2b79d0d50d10": {
	"type": "form",
    "name": "diam",
    "keys": ["d"]
  },
  "dc083dde-18be-460f-a2d9-0fff88803d6a": {
	"type": "form",
    "name": "long",
    "keys": ["l"]
  },
  "c3305c7a-ad74-4eb9-ab8b-4f67371910f3": {
	"type": "form",
    "name": "epass",
    "keys": ["ep"]
  },
  "6bd102b8-e366-4985-971b-7cdcbc851778":{
	"type": "form",
    "name": "addBlokcss",
    "keys": ["uid"]
  },
  "6395d1c2-3ba7-4a71-881f-f20f88e0efa9":{
	"type": "form",
    "name": "bloksElemChild",
    "keys": ["uid"]
  },
  "7f256362-eef7-4e56-be6d-0479f17bde86":{
	"type": "form",
    "name": "bloksElemChildМфдгу",
    "keys": ["userData"]
  },
  "da552880-9024-4acb-8764-7152df385cd0":{
	  "type": "numDevis",
    "name": "№ devis-objFacture",
    "keys": []
  },
  "2da1a9a6-3a38-4e21-8d94-a28147851f0a":{
    "type": "dopNumdevis",
    "symb": "D",
    "name": "№ devis",
    "keys": []
  },
  "e791a935-0896-4071-bb58-483739506735":{
    "type": "dopNumdevis",
    "symb": "F",
    "name": "№ devis",
    "keys": []
  },
  "c05f3c6a-0bf6-42cc-ae40-d6c803ca56a8":{
	"type": "form-json",
    "name": "objuidJson",
    "keys": ["objUid"]
  },
  "d6e6b541-b68b-43cd-aa56-eb89a4b4cee5":{
  "type": "form",
    "name": "bloksElemChildМфдгу",
    "keys": ["prix_unitaire"]
  },
  "49f82c58-9f9c-4c42-917b-9902c72d0a79":{
  "type": "allRequest",
    "name": "allRequestAh",
    "keys": []
  },
  "ccd88f40-6423-4796-b012-01aa3d72db1e":{
  "type": "allRequest",
    "name": "allRequestFact",
    "keys": []
  },
  "874cff2e-9bf3-4f54-bf58-bad524c83f5a":{
  "type": "allRequest",
    "name": "allRequestDev",
    "keys": []
  },
  "65b35d01-48dc-4c3e-aeda-9d7d61ab10cd":{
    "type": "form",
    "name": "Personne morale/Personne physique",
    "keys": ["persone"]

  },
  "91567f6c-ffc2-40fc-9ddc-8a83e3eb3b69":{
    "type": "form",
    "name": "Numéro fiscal",
    "keys": ["numero"]

  },
  "b56355f3-3940-4d3a-94bc-1d8020bdeecf":{
    "type": "form",
    "name": "Référence de l'avis",
    "keys": ["reference"]

  },
  "4fb44ad3-58c3-4dca-9de3-110c4e19b621":{
    "type": "form",
    "name": "Référence de l'avis",
    "keys": ["JSON"]

  },
  "8bcbfdec-7568-4e36-8c26-fcbb50c0f5f0":{
    "type": "form",
    "name": "Same adress",
    "keys": ["information_lieu_travaux","same_adress"]
  },
  "a7d6530d-99ed-476d-88bb-5647448f70dd":{
    "type": "form",
    "name": "Personnes",
    "keys": ["beneficiaire","number_de_perosne"]
  },
  "610617da-166a-4cd8-9ba0-ac29f8a6fc27":{
    "type": "form",
    "name": "Personnes",
    "keys": ["beneficiaire","revenue"]
  },
  "54799a6b-cd76-45cc-86ce-2248b922923b":{
    "type": "form",
    "name": "Personnes Revenue",
    "keys": ["revenue"]
  },
  "a01426ac-9576-496f-9fa2-875a6c6b4898":{
    "type": "form",
    "name": "Personnes",
    "keys": ["personnes"]
  },
  "7f1e4bcc-00ac-43a9-aee0-9718f62b2841":{
    "type": "form",
    "action":"emptyNum",
    "name": "Error addres",
    "keys": ["beneficiaire","adress_error"]
  },
  "2ad886ec-e341-40a2-89c2-bfeefad7e632":{
    "type": "form",
    "action":"emptyNum",
    "name": "TableA",
    "keys": ["beneficiaire","TableAflag"]
  },
  "dc403732-7cbf-443c-a874-366e1d1f4add":{
    "type": "form",
    "action":"emptyNum",
    "name": "TableB",
    "keys": ["beneficiaire","TableBflag"]
  },
  "7e037f62-0ca6-4839-a3e3-e0cb538d5138":{
    "type": "form",
    "source": "operation",
    "name": "operCoef",
    "keys": ["coef"]
  },
  "075d0770-fd39-4bb5-b7ae-347772c7d426":{
    "type": "form",
    "name": "operCoef",
    "keys": ["date","finDeTravaux"]
  },
  "3912c606-1615-4395-9c5b-4d9cb44b5727":{
    "type": "form",
    "source": "operation",
    "name": "Cumac",
    "keys": ["cumac"]
  },
  "2ddaacb4-ae39-408f-99a1-b4863bc626e0":{
    "type": "form",
    "source": "operation",
    "name": "ResteACharge",
    "keys": ["reste_a_charge"]
  },
  "408cb95a-7a7a-465b-9ba8-50a816b05cc5":{
    "type": "form",
    "source": "operation",
    "name": "Materiel Prix unitare",
    "keys": ["prix_material"]
  },
  "5b6bd4b0-5602-4997-9fc4-fcaf514a5822":{
    "type": "form",
    "source": "operation",
    "name": "Main d'oeuvre Prix unitare",
    "keys": ["prix_work"]
  },
  "c68c064a-892f-4175-838a-cfd3d132bfca": {
    "type": "curUser",
    "name":"Current user",
    "keys": []
  }
}
